<?xml version="1.0" encoding="UTF-8"?>
<svg xmlns="http://www.w3.org/2000/svg" xmlns:xlink="http://www.w3.org/1999/xlink" width="150pt" viewBox="0 0 375 374.999991" version="1.2">
<defs>
<g>
<symbol overflow="visible" id="glyph0-0">
<path style="stroke:none;" d="M 2.734375 -40.734375 L 27.890625 -40.734375 L 27.890625 0 L 2.734375 0 Z M 5.515625 -2.734375 L 25.15625 -2.734375 L 25.15625 -37.96875 L 5.515625 -37.96875 Z M 5.515625 -2.734375 "/>
</symbol>
<symbol overflow="visible" id="glyph0-1">
<path style="stroke:none;" d="M 29.71875 -28.34375 C 28.71875 -29.78125 27.8125 -30.796875 27 -31.390625 C 26.195312 -31.992188 25.328125 -32.425781 24.390625 -32.6875 C 23.460938 -32.945312 22.488281 -33.078125 21.46875 -33.078125 C 19.96875 -33.078125 18.570312 -32.738281 17.28125 -32.0625 C 15.988281 -31.394531 14.867188 -30.484375 13.921875 -29.328125 C 12.984375 -28.171875 12.242188 -26.828125 11.703125 -25.296875 C 11.171875 -23.765625 10.90625 -22.140625 10.90625 -20.421875 C 10.90625 -18.679688 11.171875 -17.046875 11.703125 -15.515625 C 12.234375 -13.984375 12.960938 -12.644531 13.890625 -11.5 C 14.828125 -10.351562 15.9375 -9.441406 17.21875 -8.765625 C 18.507812 -8.097656 19.925781 -7.765625 21.46875 -7.765625 C 22.539062 -7.765625 23.539062 -7.9375 24.46875 -8.28125 C 25.40625 -8.632812 26.253906 -9.097656 27.015625 -9.671875 C 27.773438 -10.242188 28.441406 -10.898438 29.015625 -11.640625 C 29.585938 -12.390625 30.035156 -13.164062 30.359375 -13.96875 L 39.015625 -11.546875 C 38.460938 -9.796875 37.644531 -8.171875 36.5625 -6.671875 C 35.488281 -5.179688 34.195312 -3.890625 32.6875 -2.796875 C 31.175781 -1.703125 29.472656 -0.84375 27.578125 -0.21875 C 25.691406 0.40625 23.65625 0.71875 21.46875 0.71875 C 19.625 0.71875 17.859375 0.46875 16.171875 -0.03125 C 14.492188 -0.53125 12.921875 -1.234375 11.453125 -2.140625 C 9.992188 -3.054688 8.671875 -4.160156 7.484375 -5.453125 C 6.296875 -6.742188 5.28125 -8.171875 4.4375 -9.734375 C 3.59375 -11.304688 2.9375 -12.992188 2.46875 -14.796875 C 2.007812 -16.597656 1.78125 -18.472656 1.78125 -20.421875 C 1.78125 -23.335938 2.289062 -26.070312 3.3125 -28.625 C 4.332031 -31.175781 5.726562 -33.40625 7.5 -35.3125 C 9.269531 -37.226562 11.347656 -38.734375 13.734375 -39.828125 C 16.128906 -40.929688 18.707031 -41.484375 21.46875 -41.484375 C 23.675781 -41.484375 25.53125 -41.207031 27.03125 -40.65625 C 28.539062 -40.113281 30.195312 -39.039062 32 -37.4375 L 38.015625 -37.4375 L 38.015625 -28.34375 Z M 29.71875 -28.34375 "/>
</symbol>
<symbol overflow="visible" id="glyph0-2">
<path style="stroke:none;" d="M 3.03125 -40.734375 L 34.5625 -40.734375 L 34.5625 -26.84375 L 25.828125 -26.84375 L 25.828125 -32.5625 L 16.171875 -32.5625 L 16.171875 -24 L 24.53125 -24 L 24.53125 -16.171875 L 16.171875 -16.171875 L 16.171875 -7.359375 L 20.46875 -7.359375 L 20.46875 0 L 3.03125 0 L 3.03125 -7.359375 L 7.25 -7.359375 L 7.25 -32.5625 L 3.03125 -32.5625 Z M 3.03125 -40.734375 "/>
</symbol>
<symbol overflow="visible" id="glyph0-3">
<path style="stroke:none;" d="M 3.03125 -40.734375 L 21.84375 -40.734375 C 23.9375 -40.734375 25.859375 -40.40625 27.609375 -39.75 C 29.367188 -39.101562 30.882812 -38.222656 32.15625 -37.109375 C 33.4375 -35.992188 34.429688 -34.710938 35.140625 -33.265625 C 35.859375 -31.816406 36.21875 -30.300781 36.21875 -28.71875 C 36.21875 -26.820312 35.9375 -25.046875 35.375 -23.390625 C 34.8125 -21.734375 33.9375 -20.296875 32.75 -19.078125 C 31.570312 -17.859375 30.078125 -16.894531 28.265625 -16.1875 C 26.453125 -15.476562 24.3125 -15.125 21.84375 -15.125 L 16.171875 -15.125 L 16.171875 -7.359375 L 19.90625 -7.359375 L 19.90625 0 L 3.03125 0 L 3.03125 -7.359375 L 7.25 -7.359375 L 7.25 -33.34375 L 3.03125 -33.34375 Z M 16.171875 -33.34375 L 16.171875 -22.40625 L 19.859375 -22.40625 C 21.898438 -22.40625 23.519531 -22.832031 24.71875 -23.6875 C 25.914062 -24.550781 26.515625 -25.914062 26.515625 -27.78125 C 26.515625 -29.519531 25.953125 -30.878906 24.828125 -31.859375 C 23.703125 -32.847656 22.046875 -33.34375 19.859375 -33.34375 Z M 16.171875 -33.34375 "/>
</symbol>
<symbol overflow="visible" id="glyph0-4">
<path style="stroke:none;" d="M 19.90625 -19.3125 C 19.90625 -19.75 19.765625 -20.160156 19.484375 -20.546875 C 19.210938 -20.941406 18.804688 -21.285156 18.265625 -21.578125 C 17.734375 -21.878906 17.078125 -22.117188 16.296875 -22.296875 C 15.515625 -22.484375 14.632812 -22.578125 13.65625 -22.578125 C 13.28125 -22.578125 12.875 -22.546875 12.4375 -22.484375 C 12.007812 -22.421875 11.609375 -22.304688 11.234375 -22.140625 C 10.867188 -21.984375 10.566406 -21.765625 10.328125 -21.484375 C 10.085938 -21.203125 9.96875 -20.847656 9.96875 -20.421875 C 9.96875 -20.203125 10 -19.992188 10.0625 -19.796875 C 10.125 -19.609375 10.242188 -19.421875 10.421875 -19.234375 C 10.597656 -19.054688 10.84375 -18.890625 11.15625 -18.734375 C 11.476562 -18.585938 11.890625 -18.46875 12.390625 -18.375 L 17.4375 -17.390625 C 19.269531 -17.023438 20.800781 -16.570312 22.03125 -16.03125 C 23.269531 -15.5 24.265625 -14.875 25.015625 -14.15625 C 25.765625 -13.445312 26.304688 -12.648438 26.640625 -11.765625 C 26.972656 -10.890625 27.140625 -9.941406 27.140625 -8.921875 C 27.140625 -7.328125 26.765625 -5.925781 26.015625 -4.71875 C 25.273438 -3.519531 24.300781 -2.519531 23.09375 -1.71875 C 21.882812 -0.925781 20.519531 -0.332031 19 0.0625 C 17.488281 0.46875 15.960938 0.671875 14.421875 0.671875 C 13.421875 0.671875 12.515625 0.609375 11.703125 0.484375 C 10.890625 0.359375 10.15625 0.191406 9.5 -0.015625 C 8.84375 -0.234375 8.257812 -0.488281 7.75 -0.78125 C 7.238281 -1.082031 6.769531 -1.414062 6.34375 -1.78125 L 1.484375 -1.78125 L 1.484375 -9.25 L 9.078125 -9.25 L 9.078125 -9.078125 C 9.097656 -8.554688 9.257812 -8.101562 9.5625 -7.71875 C 9.863281 -7.332031 10.257812 -7.003906 10.75 -6.734375 C 11.25 -6.472656 11.8125 -6.273438 12.4375 -6.140625 C 13.0625 -6.003906 13.722656 -5.9375 14.421875 -5.9375 C 16.035156 -5.9375 17.207031 -6.144531 17.9375 -6.5625 C 18.675781 -6.988281 19.046875 -7.535156 19.046875 -8.203125 C 19.046875 -8.710938 18.863281 -9.148438 18.5 -9.515625 C 18.144531 -9.890625 17.515625 -10.1875 16.609375 -10.40625 L 11.453125 -11.5 C 8.203125 -12.125 5.753906 -13.164062 4.109375 -14.625 C 2.460938 -16.09375 1.640625 -17.972656 1.640625 -20.265625 C 1.640625 -21.609375 1.953125 -22.828125 2.578125 -23.921875 C 3.203125 -25.023438 4.050781 -25.96875 5.125 -26.75 C 6.207031 -27.53125 7.46875 -28.132812 8.90625 -28.5625 C 10.351562 -28.988281 11.898438 -29.203125 13.546875 -29.203125 C 14.671875 -29.203125 15.671875 -29.132812 16.546875 -29 C 17.429688 -28.875 18.222656 -28.703125 18.921875 -28.484375 C 19.617188 -28.265625 20.226562 -28.007812 20.75 -27.71875 C 21.28125 -27.425781 21.753906 -27.117188 22.171875 -26.796875 L 26.84375 -26.796875 L 26.84375 -19.3125 Z M 19.90625 -19.3125 "/>
</symbol>
<symbol overflow="visible" id="glyph0-5">
<path style="stroke:none;" d="M 1.875 -4.359375 C 1.875 -5.066406 2.003906 -5.734375 2.265625 -6.359375 C 2.523438 -6.992188 2.890625 -7.550781 3.359375 -8.03125 C 3.835938 -8.519531 4.398438 -8.898438 5.046875 -9.171875 C 5.691406 -9.453125 6.382812 -9.59375 7.125 -9.59375 C 7.820312 -9.59375 8.488281 -9.453125 9.125 -9.171875 C 9.757812 -8.898438 10.3125 -8.523438 10.78125 -8.046875 C 11.257812 -7.566406 11.632812 -7.003906 11.90625 -6.359375 C 12.175781 -5.722656 12.3125 -5.054688 12.3125 -4.359375 C 12.3125 -3.640625 12.171875 -2.957031 11.890625 -2.3125 C 11.609375 -1.664062 11.234375 -1.109375 10.765625 -0.640625 C 10.304688 -0.179688 9.765625 0.1875 9.140625 0.46875 C 8.515625 0.75 7.84375 0.890625 7.125 0.890625 C 6.363281 0.890625 5.664062 0.75 5.03125 0.46875 C 4.394531 0.1875 3.835938 -0.179688 3.359375 -0.640625 C 2.890625 -1.109375 2.523438 -1.660156 2.265625 -2.296875 C 2.003906 -2.929688 1.875 -3.617188 1.875 -4.359375 Z M 1.875 -4.359375 "/>
</symbol>
<symbol overflow="visible" id="glyph0-6">
<path style="stroke:none;" d="M 18.625 -41.8125 L 30.796875 -41.8125 L 30.796875 -7.359375 L 36.21875 -7.359375 L 36.21875 0 L 22.515625 0 L 22.515625 -1.078125 C 21.546875 -0.578125 20.554688 -0.1875 19.546875 0.09375 C 18.535156 0.382812 17.507812 0.53125 16.46875 0.53125 C 14.34375 0.53125 12.382812 0.148438 10.59375 -0.609375 C 8.8125 -1.367188 7.28125 -2.410156 6 -3.734375 C 4.71875 -5.054688 3.71875 -6.609375 3 -8.390625 C 2.289062 -10.179688 1.9375 -12.097656 1.9375 -14.140625 C 1.9375 -16.179688 2.289062 -18.082031 3 -19.84375 C 3.707031 -21.601562 4.691406 -23.132812 5.953125 -24.4375 C 7.210938 -25.75 8.722656 -26.78125 10.484375 -27.53125 C 12.253906 -28.289062 14.195312 -28.671875 16.3125 -28.671875 C 17.476562 -28.671875 18.570312 -28.554688 19.59375 -28.328125 C 20.613281 -28.109375 21.585938 -27.789062 22.515625 -27.375 L 22.515625 -34.453125 L 18.625 -34.453125 Z M 16.921875 -6.875 C 18.109375 -6.914062 19.179688 -7.222656 20.140625 -7.796875 C 21.097656 -8.367188 21.890625 -9.117188 22.515625 -10.046875 L 22.515625 -18.25 C 21.890625 -19.195312 21.078125 -19.929688 20.078125 -20.453125 C 19.085938 -20.984375 18.035156 -21.242188 16.921875 -21.234375 C 15.992188 -21.242188 15.125 -21.078125 14.3125 -20.734375 C 13.5 -20.398438 12.78125 -19.921875 12.15625 -19.296875 C 11.539062 -18.671875 11.050781 -17.914062 10.6875 -17.03125 C 10.332031 -16.15625 10.15625 -15.160156 10.15625 -14.046875 C 10.15625 -12.960938 10.332031 -11.972656 10.6875 -11.078125 C 11.050781 -10.191406 11.539062 -9.441406 12.15625 -8.828125 C 12.78125 -8.210938 13.5 -7.742188 14.3125 -7.421875 C 15.125 -7.097656 15.992188 -6.914062 16.921875 -6.875 Z M 16.921875 -6.875 "/>
</symbol>
<symbol overflow="visible" id="glyph0-7">
<path style="stroke:none;" d="M 9.375 -12.171875 L 9.453125 -11.34375 C 9.648438 -10.53125 9.984375 -9.816406 10.453125 -9.203125 C 10.929688 -8.597656 11.492188 -8.085938 12.140625 -7.671875 C 12.785156 -7.265625 13.503906 -6.957031 14.296875 -6.75 C 15.085938 -6.550781 15.882812 -6.453125 16.6875 -6.453125 C 17.488281 -6.453125 18.253906 -6.5 18.984375 -6.59375 C 19.710938 -6.695312 20.414062 -6.832031 21.09375 -7 C 21.769531 -7.164062 22.429688 -7.359375 23.078125 -7.578125 C 23.722656 -7.804688 24.378906 -8.046875 25.046875 -8.296875 L 28 -2.796875 C 26.976562 -2.171875 26.039062 -1.632812 25.1875 -1.1875 C 24.34375 -0.75 23.488281 -0.382812 22.625 -0.09375 C 21.757812 0.1875 20.84375 0.390625 19.875 0.515625 C 18.914062 0.648438 17.789062 0.71875 16.5 0.71875 C 14.082031 0.71875 11.929688 0.320312 10.046875 -0.46875 C 8.171875 -1.269531 6.59375 -2.347656 5.3125 -3.703125 C 4.03125 -5.066406 3.050781 -6.660156 2.375 -8.484375 C 1.707031 -10.316406 1.375 -12.253906 1.375 -14.296875 C 1.375 -16.335938 1.726562 -18.253906 2.4375 -20.046875 C 3.144531 -21.835938 4.140625 -23.398438 5.421875 -24.734375 C 6.710938 -26.066406 8.253906 -27.117188 10.046875 -27.890625 C 11.835938 -28.660156 13.828125 -29.046875 16.015625 -29.046875 C 18.203125 -29.046875 20.140625 -28.679688 21.828125 -27.953125 C 23.523438 -27.234375 24.953125 -26.234375 26.109375 -24.953125 C 27.273438 -23.671875 28.171875 -22.164062 28.796875 -20.4375 C 29.429688 -18.707031 29.773438 -16.847656 29.828125 -14.859375 C 29.878906 -14.410156 29.910156 -13.96875 29.921875 -13.53125 C 29.929688 -13.09375 29.914062 -12.640625 29.875 -12.171875 Z M 15.796875 -22.328125 C 14.796875 -22.328125 13.941406 -22.207031 13.234375 -21.96875 C 12.523438 -21.726562 11.925781 -21.394531 11.4375 -20.96875 C 10.957031 -20.550781 10.570312 -20.070312 10.28125 -19.53125 C 10 -19 9.78125 -18.4375 9.625 -17.84375 L 21.25 -17.84375 C 21.125 -18.445312 20.945312 -19.019531 20.71875 -19.5625 C 20.488281 -20.101562 20.164062 -20.578125 19.75 -20.984375 C 19.332031 -21.398438 18.804688 -21.726562 18.171875 -21.96875 C 17.535156 -22.207031 16.742188 -22.328125 15.796875 -22.328125 Z M 15.796875 -22.328125 "/>
</symbol>
<symbol overflow="visible" id="glyph0-8">
<path style="stroke:none;" d="M 1.109375 -27.84375 L 15.640625 -27.84375 L 15.640625 -20.46875 L 12.25 -20.46875 L 16.796875 -8.515625 L 21.171875 -20.46875 L 18.171875 -20.46875 L 18.171875 -27.84375 L 32.703125 -27.84375 L 32.703125 -20.46875 L 29 -20.46875 L 20.6875 0.109375 L 12.5 0.109375 L 4.1875 -20.46875 L 1.109375 -20.46875 Z M 1.109375 -27.84375 "/>
</symbol>
<symbol overflow="visible" id="glyph1-0">
<path style="stroke:none;" d="M 1.09375 -16.1875 L 11.09375 -16.1875 L 11.09375 0 L 1.09375 0 Z M 2.1875 -1.09375 L 10 -1.09375 L 10 -15.09375 L 2.1875 -15.09375 Z M 2.1875 -1.09375 "/>
</symbol>
<symbol overflow="visible" id="glyph1-1">
<path style="stroke:none;" d="M 4.84375 -1.84375 L 6.328125 -1.84375 L 6.328125 -14.4375 L 2.625 -14.4375 L 2.625 -11.921875 L 0.4375 -11.921875 L 0.4375 -16.1875 L 14.875 -16.1875 L 14.875 -11.921875 L 12.6875 -11.921875 L 12.6875 -14.4375 L 8.421875 -14.4375 L 8.421875 -1.84375 L 10.078125 -1.84375 L 10.078125 0 L 4.84375 0 Z M 4.84375 -1.84375 "/>
</symbol>
<symbol overflow="visible" id="glyph1-2">
<path style="stroke:none;" d="M 1.53125 -16.1875 L 8.265625 -16.1875 C 8.984375 -16.1875 9.644531 -16.09375 10.25 -15.90625 C 10.863281 -15.71875 11.390625 -15.441406 11.828125 -15.078125 C 12.273438 -14.710938 12.625 -14.253906 12.875 -13.703125 C 13.125 -13.148438 13.25 -12.519531 13.25 -11.8125 C 13.25 -11.40625 13.175781 -11.003906 13.03125 -10.609375 C 12.882812 -10.210938 12.679688 -9.84375 12.421875 -9.5 C 12.160156 -9.164062 11.851562 -8.867188 11.5 -8.609375 C 11.144531 -8.347656 10.757812 -8.144531 10.34375 -8 C 10.519531 -7.914062 10.695312 -7.800781 10.875 -7.65625 C 11.0625 -7.507812 11.234375 -7.332031 11.390625 -7.125 C 11.546875 -6.914062 11.691406 -6.675781 11.828125 -6.40625 C 11.960938 -6.144531 12.066406 -5.859375 12.140625 -5.546875 L 13.046875 -2.03125 L 14.4375 -2.03125 L 14.46875 0 L 11.3125 0 L 10.109375 -4.921875 C 9.878906 -5.804688 9.539062 -6.457031 9.09375 -6.875 C 8.644531 -7.289062 8.023438 -7.5 7.234375 -7.5 L 5.15625 -7.5 L 5.15625 -1.84375 L 6.78125 -1.84375 L 6.78125 0 L 1.53125 0 L 1.53125 -1.84375 L 3.0625 -1.84375 L 3.0625 -14.34375 L 1.53125 -14.34375 Z M 5.15625 -14.34375 L 5.15625 -9.25 L 8.265625 -9.25 C 8.671875 -9.25 9.039062 -9.300781 9.375 -9.40625 C 9.71875 -9.519531 10.007812 -9.679688 10.25 -9.890625 C 10.5 -10.109375 10.691406 -10.375 10.828125 -10.6875 C 10.972656 -11 11.046875 -11.367188 11.046875 -11.796875 C 11.046875 -12.597656 10.800781 -13.222656 10.3125 -13.671875 C 9.832031 -14.117188 9.066406 -14.34375 8.015625 -14.34375 Z M 5.15625 -14.34375 "/>
</symbol>
<symbol overflow="visible" id="glyph1-3">
<path style="stroke:none;" d="M 11.109375 -1.84375 L 12.453125 -1.84375 L 11.171875 -5.515625 L 4.953125 -5.515625 L 3.703125 -1.84375 L 5.359375 -1.84375 L 5.359375 0 L 0.109375 0 L 0.109375 -1.84375 L 1.515625 -1.84375 L 6.5625 -16.1875 L 9.703125 -16.1875 L 14.734375 -1.84375 L 16.359375 -1.84375 L 16.359375 0 L 11.109375 0 Z M 5.546875 -7.28125 L 10.546875 -7.28125 L 8.03125 -14.53125 Z M 5.546875 -7.28125 "/>
</symbol>
<symbol overflow="visible" id="glyph1-4">
<path style="stroke:none;" d="M 13.015625 -11.921875 C 12.546875 -12.734375 11.914062 -13.367188 11.125 -13.828125 C 10.332031 -14.296875 9.453125 -14.53125 8.484375 -14.53125 C 7.660156 -14.53125 6.90625 -14.351562 6.21875 -14 C 5.539062 -13.65625 4.957031 -13.1875 4.46875 -12.59375 C 3.976562 -12.007812 3.597656 -11.332031 3.328125 -10.5625 C 3.054688 -9.789062 2.921875 -8.976562 2.921875 -8.125 C 2.921875 -7.101562 3.070312 -6.203125 3.375 -5.421875 C 3.675781 -4.648438 4.066406 -4.003906 4.546875 -3.484375 C 5.023438 -2.972656 5.59375 -2.539062 6.25 -2.1875 C 6.914062 -1.84375 7.660156 -1.671875 8.484375 -1.671875 C 9.609375 -1.671875 10.585938 -1.941406 11.421875 -2.484375 C 12.253906 -3.035156 12.96875 -3.9375 13.5625 -5.1875 L 15.4375 -4.296875 C 15.175781 -3.523438 14.71875 -2.78125 14.0625 -2.0625 C 13.414062 -1.351562 12.617188 -0.773438 11.671875 -0.328125 C 10.722656 0.109375 9.671875 0.328125 8.515625 0.328125 C 7.410156 0.328125 6.394531 0.117188 5.46875 -0.296875 C 4.539062 -0.710938 3.710938 -1.304688 2.984375 -2.078125 C 2.265625 -2.847656 1.710938 -3.757812 1.328125 -4.8125 C 0.953125 -5.863281 0.765625 -6.96875 0.765625 -8.125 C 0.765625 -9.269531 0.953125 -10.351562 1.328125 -11.375 C 1.710938 -12.40625 2.25 -13.300781 2.9375 -14.0625 C 3.625 -14.820312 4.441406 -15.421875 5.390625 -15.859375 C 6.347656 -16.296875 7.378906 -16.515625 8.484375 -16.515625 C 9.472656 -16.515625 10.328125 -16.375 11.046875 -16.09375 C 11.773438 -15.8125 12.390625 -15.472656 12.890625 -15.078125 C 13.390625 -14.691406 13.820312 -14.273438 14.1875 -13.828125 L 15.3125 -13.828125 L 15.3125 -11.921875 Z M 13.015625 -11.921875 "/>
</symbol>
<symbol overflow="visible" id="glyph1-5">
<path style="stroke:none;" d="M 12.25 -14.34375 L 12.25 -16.1875 L 15.96875 -16.1875 L 15.96875 -14.34375 L 14.703125 -14.34375 L 7.609375 -8.375 L 14.234375 -1.84375 L 15.96875 -1.84375 L 15.96875 0 L 11.609375 0 L 11.609375 -1.84375 L 5.1875 -8.265625 Z M 1.546875 -16.1875 L 6.796875 -16.1875 L 6.796875 -14.34375 L 5.15625 -14.34375 L 5.15625 -1.84375 L 6.78125 -1.84375 L 6.78125 0 L 1.53125 0 L 1.53125 -1.84375 L 3.0625 -1.84375 L 3.0625 -14.34375 L 1.546875 -14.34375 Z M 1.546875 -16.1875 "/>
</symbol>
<symbol overflow="visible" id="glyph1-6">
<path style="stroke:none;" d="M 2.1875 -3.015625 L 4.53125 -2.109375 L 1.75 3.625 L 0.21875 3.0625 Z M 2.1875 -3.015625 "/>
</symbol>
<symbol overflow="visible" id="glyph1-7">
<path style="stroke:none;" d="M 0 0 Z M 0 0 "/>
</symbol>
<symbol overflow="visible" id="glyph1-8">
<path style="stroke:none;" d="M 9.828125 -11.796875 C 9.828125 -12.421875 9.710938 -12.890625 9.484375 -13.203125 C 9.253906 -13.515625 9.003906 -13.753906 8.734375 -13.921875 C 8.460938 -14.085938 8.160156 -14.210938 7.828125 -14.296875 C 7.503906 -14.390625 7.175781 -14.4375 6.84375 -14.4375 C 6.300781 -14.4375 5.828125 -14.375 5.421875 -14.25 C 5.015625 -14.125 4.675781 -13.953125 4.40625 -13.734375 C 4.144531 -13.523438 3.945312 -13.28125 3.8125 -13 C 3.675781 -12.71875 3.609375 -12.421875 3.609375 -12.109375 C 3.609375 -11.628906 3.691406 -11.242188 3.859375 -10.953125 C 4.023438 -10.671875 4.234375 -10.441406 4.484375 -10.265625 C 4.742188 -10.097656 5.03125 -9.960938 5.34375 -9.859375 C 5.65625 -9.753906 5.953125 -9.65625 6.234375 -9.5625 L 8.390625 -8.859375 C 9.046875 -8.648438 9.617188 -8.410156 10.109375 -8.140625 C 10.609375 -7.878906 11.023438 -7.566406 11.359375 -7.203125 C 11.691406 -6.847656 11.941406 -6.4375 12.109375 -5.96875 C 12.285156 -5.5 12.375 -4.957031 12.375 -4.34375 C 12.375 -3.664062 12.238281 -3.039062 11.96875 -2.46875 C 11.695312 -1.90625 11.3125 -1.410156 10.8125 -0.984375 C 10.320312 -0.566406 9.738281 -0.238281 9.0625 0 C 8.382812 0.238281 7.640625 0.359375 6.828125 0.359375 C 5.992188 0.359375 5.28125 0.257812 4.6875 0.0625 C 4.09375 -0.125 3.59375 -0.375 3.1875 -0.6875 C 2.789062 -1.007812 2.472656 -1.367188 2.234375 -1.765625 C 1.992188 -2.171875 1.804688 -2.585938 1.671875 -3.015625 L 0.859375 -3.015625 L 0.859375 -4.859375 L 3.546875 -4.859375 C 3.546875 -4.066406 3.628906 -3.503906 3.796875 -3.171875 C 3.960938 -2.847656 4.195312 -2.578125 4.5 -2.359375 C 4.800781 -2.148438 5.15625 -1.988281 5.5625 -1.875 C 5.976562 -1.757812 6.4375 -1.703125 6.9375 -1.703125 C 7.414062 -1.703125 7.847656 -1.757812 8.234375 -1.875 C 8.628906 -1.988281 8.960938 -2.15625 9.234375 -2.375 C 9.503906 -2.59375 9.710938 -2.851562 9.859375 -3.15625 C 10.003906 -3.46875 10.078125 -3.820312 10.078125 -4.21875 C 10.078125 -4.65625 9.984375 -5.023438 9.796875 -5.328125 C 9.617188 -5.628906 9.390625 -5.882812 9.109375 -6.09375 C 8.828125 -6.3125 8.515625 -6.488281 8.171875 -6.625 C 7.835938 -6.757812 7.515625 -6.875 7.203125 -6.96875 L 4.859375 -7.640625 C 4.347656 -7.796875 3.878906 -7.992188 3.453125 -8.234375 C 3.023438 -8.472656 2.660156 -8.765625 2.359375 -9.109375 C 2.054688 -9.460938 1.820312 -9.875 1.65625 -10.34375 C 1.5 -10.8125 1.421875 -11.351562 1.421875 -11.96875 C 1.421875 -12.582031 1.539062 -13.160156 1.78125 -13.703125 C 2.019531 -14.242188 2.375 -14.71875 2.84375 -15.125 C 3.320312 -15.53125 3.898438 -15.847656 4.578125 -16.078125 C 5.253906 -16.304688 6.03125 -16.421875 6.90625 -16.421875 C 7.488281 -16.421875 8.019531 -16.351562 8.5 -16.21875 C 8.988281 -16.082031 9.429688 -15.890625 9.828125 -15.640625 C 10.222656 -15.398438 10.570312 -15.109375 10.875 -14.765625 C 11.175781 -14.421875 11.429688 -14.039062 11.640625 -13.625 L 12.4375 -13.625 L 12.4375 -11.796875 Z M 9.828125 -11.796875 "/>
</symbol>
<symbol overflow="visible" id="glyph1-9">
<path style="stroke:none;" d="M 1.203125 -16.1875 L 6.453125 -16.1875 L 6.453125 -14.34375 L 4.796875 -14.34375 L 4.796875 -6.796875 C 4.796875 -5.898438 4.894531 -5.128906 5.09375 -4.484375 C 5.300781 -3.847656 5.582031 -3.328125 5.9375 -2.921875 C 6.300781 -2.523438 6.726562 -2.234375 7.21875 -2.046875 C 7.71875 -1.859375 8.265625 -1.765625 8.859375 -1.765625 C 9.460938 -1.765625 10.019531 -1.847656 10.53125 -2.015625 C 11.050781 -2.179688 11.492188 -2.457031 11.859375 -2.84375 C 12.222656 -3.226562 12.503906 -3.742188 12.703125 -4.390625 C 12.910156 -5.035156 13.015625 -5.835938 13.015625 -6.796875 L 13.015625 -14.34375 L 11.265625 -14.34375 L 11.265625 -16.1875 L 16.515625 -16.1875 L 16.515625 -14.34375 L 15.078125 -14.34375 L 15.078125 -7.03125 C 15.078125 -5.863281 14.910156 -4.828125 14.578125 -3.921875 C 14.253906 -3.023438 13.8125 -2.269531 13.25 -1.65625 C 12.6875 -1.039062 12.023438 -0.570312 11.265625 -0.25 C 10.503906 0.0625 9.6875 0.21875 8.8125 0.21875 C 7.957031 0.21875 7.15625 0.0625 6.40625 -0.25 C 5.664062 -0.5625 5.019531 -1.019531 4.46875 -1.625 C 3.914062 -2.238281 3.476562 -2.976562 3.15625 -3.84375 C 2.84375 -4.71875 2.6875 -5.71875 2.6875 -6.84375 L 2.6875 -14.34375 L 1.203125 -14.34375 Z M 1.203125 -16.1875 "/>
</symbol>
<symbol overflow="visible" id="glyph1-10">
<path style="stroke:none;" d="M 1.53125 -1.84375 L 3.0625 -1.84375 L 3.0625 -14.34375 L 1.53125 -14.34375 L 1.53125 -16.21875 L 8.8125 -16.1875 C 9.46875 -16.1875 10.082031 -16.0625 10.65625 -15.8125 C 11.238281 -15.570312 11.742188 -15.238281 12.171875 -14.8125 C 12.597656 -14.394531 12.929688 -13.894531 13.171875 -13.3125 C 13.421875 -12.738281 13.546875 -12.117188 13.546875 -11.453125 C 13.546875 -10.765625 13.351562 -10.132812 12.96875 -9.5625 C 12.582031 -9 12.035156 -8.546875 11.328125 -8.203125 C 11.671875 -8.015625 11.984375 -7.796875 12.265625 -7.546875 C 12.554688 -7.304688 12.800781 -7.039062 13 -6.75 C 13.195312 -6.457031 13.347656 -6.144531 13.453125 -5.8125 C 13.566406 -5.488281 13.625 -5.15625 13.625 -4.8125 C 13.625 -4.132812 13.5 -3.503906 13.25 -2.921875 C 13.007812 -2.335938 12.675781 -1.828125 12.25 -1.390625 C 11.820312 -0.960938 11.320312 -0.625 10.75 -0.375 C 10.175781 -0.125 9.5625 0 8.90625 0 L 1.53125 0 Z M 5.15625 -7.203125 L 5.15625 -1.84375 L 8.921875 -1.84375 C 9.265625 -1.84375 9.582031 -1.925781 9.875 -2.09375 C 10.164062 -2.257812 10.421875 -2.476562 10.640625 -2.75 C 10.867188 -3.03125 11.046875 -3.34375 11.171875 -3.6875 C 11.296875 -4.039062 11.359375 -4.398438 11.359375 -4.765625 C 11.359375 -5.078125 11.289062 -5.378906 11.15625 -5.671875 C 11.03125 -5.960938 10.859375 -6.222656 10.640625 -6.453125 C 10.421875 -6.679688 10.164062 -6.863281 9.875 -7 C 9.582031 -7.132812 9.265625 -7.203125 8.921875 -7.203125 Z M 5.15625 -14.34375 L 5.15625 -9.0625 L 8.828125 -9.0625 C 9.171875 -9.0625 9.488281 -9.128906 9.78125 -9.265625 C 10.082031 -9.398438 10.34375 -9.578125 10.5625 -9.796875 C 10.78125 -10.023438 10.953125 -10.289062 11.078125 -10.59375 C 11.203125 -10.894531 11.265625 -11.207031 11.265625 -11.53125 C 11.265625 -11.875 11.203125 -12.210938 11.078125 -12.546875 C 10.953125 -12.890625 10.773438 -13.191406 10.546875 -13.453125 C 10.328125 -13.722656 10.066406 -13.9375 9.765625 -14.09375 C 9.472656 -14.257812 9.160156 -14.34375 8.828125 -14.34375 Z M 5.15625 -14.34375 "/>
</symbol>
<symbol overflow="visible" id="glyph1-11">
<path style="stroke:none;" d="M 1.53125 -1.84375 L 3.0625 -1.84375 L 3.0625 -14.15625 L 1.53125 -14.15625 L 1.53125 -16.1875 L 6.65625 -16.1875 L 11.796875 -2.21875 L 17 -16.1875 L 21.859375 -16.1875 L 21.859375 -14.15625 L 20.328125 -14.15625 L 20.328125 -1.84375 L 21.859375 -1.84375 L 21.859375 0 L 16.59375 0 L 16.59375 -1.84375 L 18.328125 -1.84375 L 18.328125 -14.265625 L 12.671875 0 L 10.859375 0 L 5.109375 -14.296875 L 5.109375 -1.84375 L 6.78125 -1.84375 L 6.78125 0 L 1.53125 0 Z M 1.53125 -1.84375 "/>
</symbol>
<symbol overflow="visible" id="glyph1-12">
<path style="stroke:none;" d="M 1.53125 -16.1875 L 6.703125 -16.1875 L 6.703125 -14.34375 L 5.15625 -14.34375 L 5.15625 -1.84375 L 6.703125 -1.84375 L 6.703125 0 L 1.53125 0 L 1.53125 -1.84375 L 3.0625 -1.84375 L 3.0625 -14.34375 L 1.53125 -14.34375 Z M 1.53125 -16.1875 "/>
</symbol>
<symbol overflow="visible" id="glyph1-13">
<path style="stroke:none;" d="M 1.53125 -16.1875 L 6.78125 -16.1875 L 6.78125 -14.34375 L 5.15625 -14.34375 L 5.15625 -1.84375 L 10.75 -1.84375 C 10.863281 -1.84375 10.976562 -1.867188 11.09375 -1.921875 C 11.207031 -1.972656 11.304688 -2.039062 11.390625 -2.125 C 11.484375 -2.207031 11.554688 -2.300781 11.609375 -2.40625 C 11.671875 -2.519531 11.703125 -2.632812 11.703125 -2.75 L 11.703125 -4.796875 L 13.734375 -4.796875 L 13.734375 0 L 1.53125 0 L 1.53125 -1.84375 L 3.0625 -1.84375 L 3.0625 -14.34375 L 1.53125 -14.34375 Z M 1.53125 -16.1875 "/>
</symbol>
</g>
</defs>
<g id="surface1">
<rect x="0" y="0" width="375" height="374.999991" style="fill:rgb(100%,100%,100%);fill-opacity:1;stroke:none;"/>
<rect x="0" y="0" width="375" height="374.999991" style="fill:rgb(100%,100%,100%);fill-opacity:1;stroke:none;"/>
<g style="fill:rgb(0%,0%,0%);fill-opacity:1;">
  <use xlink:href="#glyph0-1" x="215.068188" y="73.674933"/>
</g>
<g style="fill:rgb(0%,0%,0%);fill-opacity:1;">
  <use xlink:href="#glyph0-2" x="256.279173" y="73.674933"/>
</g>
<g style="fill:rgb(0%,0%,0%);fill-opacity:1;">
  <use xlink:href="#glyph0-3" x="290.288071" y="73.674933"/>
</g>
<g style="fill:rgb(0%,0%,0%);fill-opacity:1;">
  <use xlink:href="#glyph0-4" x="327.360546" y="73.674933"/>
</g>
<g style="fill:rgb(0%,0%,0%);fill-opacity:1;">
  <use xlink:href="#glyph0-5" x="241.146191" y="134.215458"/>
</g>
<g style="fill:rgb(0%,0%,0%);fill-opacity:1;">
  <use xlink:href="#glyph0-6" x="254.811882" y="134.215458"/>
</g>
<g style="fill:rgb(0%,0%,0%);fill-opacity:1;">
  <use xlink:href="#glyph0-7" x="291.884354" y="134.215458"/>
</g>
<g style="fill:rgb(0%,0%,0%);fill-opacity:1;">
  <use xlink:href="#glyph0-8" x="323.205909" y="134.215458"/>
</g>
<g style="fill:rgb(0%,0%,0%);fill-opacity:1;">
  <use xlink:href="#glyph1-1" x="41.365112" y="369.99709"/>
</g>
<g style="fill:rgb(0%,0%,0%);fill-opacity:1;">
  <use xlink:href="#glyph1-2" x="58.205814" y="369.99709"/>
</g>
<g style="fill:rgb(0%,0%,0%);fill-opacity:1;">
  <use xlink:href="#glyph1-3" x="75.302738" y="369.99709"/>
</g>
<g style="fill:rgb(0%,0%,0%);fill-opacity:1;">
  <use xlink:href="#glyph1-4" x="93.296436" y="369.99709"/>
</g>
<g style="fill:rgb(0%,0%,0%);fill-opacity:1;">
  <use xlink:href="#glyph1-5" x="110.937843" y="369.99709"/>
</g>
<g style="fill:rgb(0%,0%,0%);fill-opacity:1;">
  <use xlink:href="#glyph1-6" x="129.198451" y="369.99709"/>
</g>
<g style="fill:rgb(0%,0%,0%);fill-opacity:1;">
  <use xlink:href="#glyph1-7" x="136.804506" y="369.99709"/>
</g>
<g style="fill:rgb(0%,0%,0%);fill-opacity:1;">
  <use xlink:href="#glyph1-8" x="143.118771" y="369.99709"/>
</g>
<g style="fill:rgb(0%,0%,0%);fill-opacity:1;">
  <use xlink:href="#glyph1-9" x="157.568073" y="369.99709"/>
</g>
<g style="fill:rgb(0%,0%,0%);fill-opacity:1;">
  <use xlink:href="#glyph1-10" x="175.647181" y="369.99709"/>
</g>
<g style="fill:rgb(0%,0%,0%);fill-opacity:1;">
  <use xlink:href="#glyph1-11" x="191.61246" y="369.99709"/>
</g>
<g style="fill:rgb(0%,0%,0%);fill-opacity:1;">
  <use xlink:href="#glyph1-12" x="216.513479" y="369.99709"/>
</g>
<g style="fill:rgb(0%,0%,0%);fill-opacity:1;">
  <use xlink:href="#glyph1-1" x="226.265374" y="369.99709"/>
</g>
<g style="fill:rgb(0%,0%,0%);fill-opacity:1;">
  <use xlink:href="#glyph1-6" x="243.106067" y="369.99709"/>
</g>
<g style="fill:rgb(0%,0%,0%);fill-opacity:1;">
  <use xlink:href="#glyph1-7" x="250.712116" y="369.99709"/>
</g>
<g style="fill:rgb(0%,0%,0%);fill-opacity:1;">
  <use xlink:href="#glyph1-1" x="257.026371" y="369.99709"/>
</g>
<g style="fill:rgb(0%,0%,0%);fill-opacity:1;">
  <use xlink:href="#glyph1-3" x="273.867064" y="369.99709"/>
</g>
<g style="fill:rgb(0%,0%,0%);fill-opacity:1;">
  <use xlink:href="#glyph1-13" x="291.860754" y="369.99709"/>
</g>
<g style="fill:rgb(0%,0%,0%);fill-opacity:1;">
  <use xlink:href="#glyph1-5" x="307.228173" y="369.99709"/>
</g>
<path style=" stroke:none;fill-rule:nonzero;fill:rgb(100%,25.099182%,19.999695%);fill-opacity:1;" d="M 15.652344 0 L 168.464844 0 L 168.464844 152.8125 L 15.652344 152.8125 Z M 15.652344 0 "/>
<path style=" stroke:none;fill-rule:nonzero;fill:rgb(100%,77.648926%,1.568604%);fill-opacity:1;" d="M 15.652344 166.207031 L 168.464844 166.207031 L 168.464844 319.019531 L 15.652344 319.019531 Z M 15.652344 166.207031 "/>
<path style=" stroke:none;fill-rule:nonzero;fill:rgb(100%,25.099182%,19.999695%);fill-opacity:1;" d="M 183.199219 166.207031 L 336.011719 166.207031 L 336.011719 319.019531 L 183.199219 319.019531 Z M 183.199219 166.207031 "/>
</g>
</svg>
